<?xml version="1.0" encoding="UTF-8"?>
<svg width="36px" height="37px" viewBox="0 0 36 37" version="1.1" xmlns="http://www.w3.org/2000/svg" xmlns:xlink="http://www.w3.org/1999/xlink">
    <!-- Generator: Sketch 58 (84663) - https://sketch.com -->
    <title>24h</title>
    <desc>Created with Sketch.</desc>
    <g id="Landingpage-Tonero-2020" stroke="none" stroke-width="1" fill="none" fill-rule="evenodd">
        <g id="Desktop-HD" transform="translate(-429.000000, -651.000000)">
            <g id="Group-4" transform="translate(423.000000, 645.000000)">
                <g id="24h">
                    <polygon id="grid" points="0 0 48 0 48 48 0 48"></polygon>
                    <g transform="translate(6.000000, 6.000000)" fill-rule="nonzero">
                        <path d="M35.5,14.3 L36,14.3 L36,3.3 L32.2,7.4 C28.8,3.2 23.6,0.4 18,0.4 C10.6,0.4 4.2,4.9 1.4,11.3 C-1.3,17.7 -7.34967642e-14,25.5 5.3,30.8 C12.3,37.8 23.7,37.8 30.7,30.8 C34.2,27.3 36,22.2 36,18.2 L32,18.2 C32,22.2 30.6,25.3 27.9,28 C22.4,33.4 13.6,33.4 8.1,28 C4.3,24.3 3.2,19 4.6,14.3 C6.3,8.6 11.6,4.5 17.9,4.5 C22.6,4.5 26.8,6.8 29.3,10.4 L25.6,14.3 L31.3,14.3 L35.5,14.3 Z" id="shape" fill="#BFBFBF"></path>
                        <polygon id="needles" fill="#228D27" points="19 10 19 18.5 26 22.7 24.6 25.1 16 20 16 10"></polygon>
                    </g>
                </g>
            </g>
        </g>
    </g>
</svg>