<?xml version="1.0" encoding="UTF-8"?>
<svg width="312px" height="169px" viewBox="0 0 312 169" version="1.1" xmlns="http://www.w3.org/2000/svg" xmlns:xlink="http://www.w3.org/1999/xlink">
    <title>undraw_page_not_found_su7k</title>
    <g id="Front-End---27-inch" stroke="none" stroke-width="1" fill="none" fill-rule="evenodd">
        <g id="Thankyou-Page" transform="translate(-564.000000, -183.000000)">
            <g id="undraw_page_not_found_su7k" transform="translate(565.000000, 183.000000)">
                <ellipse id="Oval" fill="#F2F2F2" fill-rule="nonzero" cx="156.5" cy="159" rx="152.5" ry="10"></ellipse>
                <path d="M150.471306,48 C125.749788,48 108,63.8735461 108,100.911814 C108,142.888517 125.749782,154 150.471306,154 C175.192829,154 194,141.830283 194,100.911814 C194,57.1713826 175.192824,48 150.471306,48 Z M150.633812,140.066558 C133.511114,140.066558 124.565575,130.012945 124.565575,100.93892 C124.565575,75.2853665 133.877296,61.7570725 151.000009,61.7570725 C168.122721,61.7570725 177.434442,70.6432895 177.434442,100.93892 C177.434442,129.279985 167.756509,140.066558 150.633812,140.066558 Z" id="Shape" fill="#2F2E41" fill-rule="nonzero"></path>
                <path d="M92.8191679,125.09044 L82.5765993,125.09044 L82.5765993,94.7453624 C82.5765961,91.3890618 79.8722178,88.6682435 76.5361971,88.6682402 L74.136164,88.6682402 C72.5341477,88.6682395 70.9977455,89.3085061 69.8649487,90.4481888 C68.7321518,91.5878714 68.0957531,93.1336131 68.0957531,94.7453682 L68.0957531,125.09044 L39.2049861,125.09044 C37.9960963,125.090442 36.8754827,124.453551 36.2515013,123.411852 C35.6275199,122.370154 35.5913009,121.075784 36.1560427,120.000418 L66.7337086,61.774776 C67.5040648,60.3078641 67.6448205,58.5878577 67.1233092,57.0139372 C66.6017979,55.4400167 65.4633643,54.1490327 63.972217,53.4405978 L62.1671407,52.5830194 C59.2560913,51.2000006 55.778477,52.3569343 54.2607965,55.2133043 L16.9673023,125.401952 C16.3322456,126.597166 16,127.931514 16,129.286783 L16,129.286783 C16,131.472299 16.8629473,133.568302 18.3990033,135.113696 C19.9350593,136.659089 22.0183981,137.527281 24.1907089,137.52728 L68.0957531,137.52728 L68.0957531,156.715572 C68.0957531,158.647523 68.8585802,160.500345 70.216421,161.86644 C71.5742618,163.232536 73.4158892,164 75.3361661,164 L75.3361805,164 C77.2564575,164 79.0980848,163.232536 80.4559257,161.86644 C81.8137665,160.500345 82.5765936,158.647523 82.5765936,156.715572 L82.5765936,137.527292 L92.8191535,137.527292 C96.2327408,137.527292 99,134.74321 99,131.308872 L99,131.308872 C99,127.874534 96.2327541,125.090448 92.8191679,125.09044 Z" id="Path" fill="#6C63FF" fill-rule="nonzero"></path>
                <path d="M282.819181,125.09044 L272.57662,125.09044 L272.57662,94.7453625 C272.576616,91.3890586 269.872232,88.6682388 266.536208,88.6682404 L264.136174,88.6682404 C262.534158,88.6682396 260.997755,89.3085063 259.864958,90.4481889 C258.732161,91.5878716 258.095762,93.1336133 258.095762,94.7453683 L258.095762,125.09044 L229.20499,125.09044 C227.996099,125.090443 226.875484,124.453553 226.251503,123.411854 C225.627521,122.370155 225.591302,121.075784 226.156046,120.000418 L256.733715,61.7747878 C257.504074,60.3078749 257.644832,58.5878662 257.123321,57.0139432 C256.60181,55.4400202 255.463375,54.1490339 253.972225,53.440598 L252.167149,52.5830196 C249.256098,51.2000005 245.778482,52.3569341 244.2608,55.2133044 L206.967303,125.401952 C206.332246,126.597166 206,127.931514 206,129.286783 L206,129.286783 C206,133.837884 209.667105,137.52728 214.190707,137.52728 L258.095762,137.52728 L258.095762,156.715572 C258.095762,160.738651 261.337406,164 265.336176,164 L265.336176,164 C269.334947,164 272.576591,160.738651 272.576591,156.715572 L272.576591,137.527292 L282.819152,137.527292 C286.23274,137.527292 289,134.743211 289,131.308872 L289,131.308872 C289,127.87454 286.232762,125.090456 282.819181,125.09044 L282.819181,125.09044 Z" id="Path" fill="#6C63FF" fill-rule="nonzero"></path>
                <path d="M95.8191652,122.090437 L85.5766028,122.090437 L85.5766028,91.7453679 C85.5766035,90.133613 84.9402056,88.5878711 83.8074093,87.448188 C82.674613,86.3085049 81.1382112,85.6682375 79.536195,85.6682375 L77.136162,85.6682375 C73.8001353,85.6682375 71.0957513,88.3890615 71.0957513,91.7453679 L71.0957513,122.090437 L42.2049853,122.090437 C40.9960956,122.090439 39.875482,121.453548 39.2515006,120.41185 C38.6275192,119.370151 38.5913002,118.075782 39.156042,117.000415 L69.733704,58.7747957 C70.5040651,57.3078824 70.644824,55.5878724 70.123313,54.0139481 C69.6018021,52.4400238 68.4633662,51.1490366 66.9722153,50.4406008 L65.1671391,49.5830225 C62.2560927,48.2000012 58.7784788,49.3569279 57.2607923,52.2132926 L19.9673023,122.401952 C19.3322455,123.597167 19,124.931516 19,126.286785 L19,126.286785 C19,130.837886 22.6671039,134.527283 27.1907058,134.527283 L71.0957513,134.527283 L71.0957513,153.715573 C71.0957513,155.647523 71.8585783,157.500346 73.2164191,158.866441 C74.5742599,160.232536 76.4158872,161 78.3361641,161 L78.3361785,161 C82.334948,161 85.5765912,157.738651 85.5765912,153.715573 L85.5765912,134.527294 L95.8191537,134.527294 C97.4584161,134.527294 99.0305385,133.872141 100.189672,132.705961 C101.348806,131.539781 102,129.958102 102,128.308874 L102,128.308874 C102,126.659646 101.348814,125.077964 100.189682,123.911781 C99.0305507,122.745597 97.4584286,122.090441 95.8191652,122.090437 L95.8191652,122.090437 Z" id="Path" stroke="#3F3D56"></path>
                <path d="M287.819181,122.090437 L277.57662,122.090437 L277.57662,91.7453679 C277.57662,88.3890615 274.872235,85.6682375 271.536208,85.6682375 L269.136174,85.6682375 C267.534157,85.6682375 265.997755,86.3085048 264.864958,87.4481878 C263.732161,88.5878708 263.095762,90.1336127 263.095762,91.7453679 L263.095762,122.090437 L234.20499,122.090437 C232.9961,122.090439 231.875486,121.453548 231.251505,120.41185 C230.627523,119.370151 230.591304,118.075782 231.156046,117.000415 L261.733715,58.7747957 C262.504076,57.3078824 262.644835,55.5878724 262.123324,54.0139481 C261.601813,52.4400238 260.463377,51.1490366 258.972225,50.4406008 L257.167149,49.5830225 C254.256102,48.2000012 250.778487,49.3569279 249.2608,52.2132926 L211.967303,122.401952 C211.332246,123.597167 211,124.931516 211,126.286785 L211,126.286785 C211,130.837886 214.667105,134.527283 219.190707,134.527283 L263.095762,134.527283 L263.095762,153.715573 C263.095762,157.738651 266.337406,161 270.336176,161 L270.336176,161 C274.334947,161 277.576591,157.738651 277.576591,153.715573 L277.576591,134.527294 L287.819152,134.527294 C289.458415,134.527294 291.030538,133.872141 292.189672,132.705961 C293.348805,131.539781 294,129.958102 294,128.308874 L294,128.308874 C294,124.874541 291.232765,122.090453 287.819181,122.090437 Z" id="Path" stroke="#3F3D56"></path>
                <path d="M155.471306,45 C130.749788,45 113,60.8735432 113,97.9118136 C113,139.888517 130.749782,151 155.471306,151 C180.192829,151 199,138.830283 199,97.9118136 C199,54.1713798 180.192824,45 155.471306,45 Z M155.633826,137.066555 C138.511128,137.066555 129.56559,127.012945 129.56559,97.9389204 C129.56559,72.2853665 138.877311,58.7570725 156.000023,58.7570725 C173.122735,58.7570725 182.434456,67.6432895 182.434456,97.9389204 C182.434456,126.279982 172.756509,137.066555 155.633812,137.066555 L155.633826,137.066555 Z" id="Shape" stroke="#3F3D56"></path>
                <circle id="Oval" fill="#2F2E41" fill-rule="nonzero" cx="135.5" cy="5.5" r="3.5"></circle>
                <ellipse id="Oval" fill="#2F2E41" fill-rule="nonzero" cx="145.5" cy="13.5" rx="10.5" ry="13.5"></ellipse>
                <path d="M145.5,22.8017481 C140.239992,22.8017481 135.883532,17.6812068 135.119102,11 C135.03958,11.6967546 135,12.3976479 135,13.0991245 C135,20.7763637 139.701015,27 145.5,27 C151.298982,27 156,20.7763726 156,13.0991245 C156,12.3976479 155.96042,11.6967546 155.880898,11 C155.116468,17.6812068 150.760017,22.8017481 145.5,22.8017481 Z" id="Path" fill="#000000" fill-rule="nonzero" opacity="0.1"></path>
                <path d="M165.937538,53.5185155 C165.711351,54.3820266 164.736059,55.0735898 163.655962,55.5567715 C161.385135,56.5726183 158.584128,56.8757537 155.867243,56.9775054 C155.174153,57.0166353 154.478815,57.0047003 153.787754,56.9418126 C152.448613,56.8214807 151.192325,56.2849745 150.222099,55.4190754 C150.081313,55.3338298 149.997475,55.1874218 150,55.0313205 C150.002641,54.8752193 150.091282,54.7312741 150.234821,54.6500883 C151.681222,53.1740034 154.094937,52.2689263 156.526445,51.6172498 C158.370145,51.1231115 161.585473,49.8431806 163.596367,50.0159099 C165.544095,50.1832257 166.22313,52.428222 165.937538,53.5185155 Z" id="Path" fill="#3F3D56" fill-rule="nonzero"></path>
                <path d="M165.937538,53.5185155 C165.711351,54.3820266 164.736059,55.0735898 163.655962,55.5567715 C161.385135,56.5726183 158.584128,56.8757537 155.867243,56.9775054 C155.174153,57.0166353 154.478815,57.0047003 153.787754,56.9418126 C152.448613,56.8214807 151.192325,56.2849745 150.222099,55.4190754 C150.081313,55.3338298 149.997475,55.1874218 150,55.0313205 C150.002641,54.8752193 150.091282,54.7312741 150.234821,54.6500883 C151.681222,53.1740034 154.094937,52.2689263 156.526445,51.6172498 C158.370145,51.1231115 161.585473,49.8431806 163.596367,50.0159099 C165.544095,50.1832257 166.22313,52.428222 165.937538,53.5185155 Z" id="Path" fill="#000000" fill-rule="nonzero" opacity="0.1"></path>
                <path d="M137.62309,46.2653262 C136.93606,47.6316149 136.811684,49.2187834 137.277291,50.6780756 C137.750859,52.1263365 138.63728,53.3994426 139.824323,54.336202 C142.736411,56.7048191 146.744283,57.0307648 150.476301,56.9978801 C153.747047,56.9690022 157.013171,56.7418493 160.257214,56.3176356 C161.344306,56.2198787 162.412561,55.9681896 163.430883,55.5698946 C164.648957,55.0351487 165.719326,54.0542967 166.15296,52.7814903 C166.586594,51.5086838 166.278808,49.9501257 165.248919,49.1006923 C164.344005,48.354336 163.09611,48.2516746 161.932073,48.1806919 L155.271801,47.7745515 C155.929819,47.0988295 156.805972,46.7166457 157.607277,46.2254074 C158.670384,45.5736801 159.376679,44.4794384 160.149667,43.4929105 C161.340708,42.0485088 162.636571,40.6965453 164.026405,39.4483381 C164.243161,40.7100913 165.029789,41.746195 165.955551,42.6167865 C166.881314,43.487378 167.948475,44.1882626 168.91069,45.0171642 C171.241187,47.0247791 172.919329,49.7496095 175.370329,51.603588 C177.056393,51.1540262 178.632622,50.3555173 180,49.258222 L179.04742,47.5073176 C178.968043,47.3271234 178.844421,47.1706151 178.688384,47.0527694 C178.418758,46.8844529 178.071113,46.9711812 177.758043,46.9235491 C176.92122,46.796214 176.555751,45.8158802 176.227379,45.024538 C175.325912,42.8520169 173.599923,41.1664515 172.12585,39.3445703 C171.037859,37.9996938 170.072696,36.5571712 169.242292,35.0348365 C168.747114,34.1269168 168.293777,33.1815782 167.621779,32.3993777 C166.949782,31.6171773 166.008155,31.0022044 164.985525,31 C164.081948,30.9980682 163.248536,31.4635497 162.471665,31.9317711 C160.105475,33.3579463 157.828834,34.9318248 155.654882,36.6443228 C154.517194,37.540557 153.386563,38.487447 152.051987,39.0370312 C151.490182,39.2683858 150.897949,39.4265068 150.358841,39.7080227 C149.414616,40.2010876 148.698014,41.0353374 147.926604,41.7758714 C145.175226,44.4171671 141.408248,46.1284805 137.62309,46.2653262 Z" id="Path" fill="#3F3D56" fill-rule="nonzero"></path>
                <path d="M151.969345,27.9262248 C151.936986,28.7272173 151.759905,29.5166696 151.446039,30.2592044 C151.124453,31.0078264 150.493829,31.5940809 149.70518,31.8775793 C149.15118,32.0203852 148.570442,32.0385196 148.007984,31.9305765 C147.517524,31.8812876 147.044894,31.7263736 146.625157,31.4773279 C145.971748,31.0450877 145.645982,30.2738237 145.527264,29.5190086 C145.408546,28.7650996 145.461725,27.9947619 145.385752,27.2353787 C145.311727,26.622016 145.190461,26.01479 145.022955,25.4187106 C144.971665,25.2204116 144.919428,25.0230303 144.868135,24.8256432 C144.817808,24.628259 144.76842,24.430872 144.722832,24.2334936 C144.681038,24.0479843 144.642108,23.861569 144.608859,23.674236 C144.581323,23.5161474 144.556643,23.3571382 144.538578,23.1972201 C144.521952,22.7231274 144.439873,22.2532677 144.294499,21.7999966 C144.158051,21.5060265 143.987265,21.2279578 143.785439,20.9711614 C143.699011,20.8523655 143.615432,20.7335726 143.538499,20.6102028 C143.316008,20.2896014 143.2126,19.9060849 143.245044,19.5218468 C143.254181,19.462446 143.269126,19.4040077 143.289678,19.3473093 C143.297272,19.3253774 143.305817,19.3034571 143.315333,19.2824313 C143.488796,19.2371177 143.627788,19.1122666 143.686675,18.9488672 C143.719337,18.7759885 143.703939,18.597875 143.642041,18.4325644 C143.571073,18.201571 143.473931,17.9787834 143.352364,17.7682155 C143.272591,17.6293144 143.001918,17.3789301 143,17.219918 C142.996214,16.9000817 143.645844,16.6423848 143.908923,16.5162764 C144.711946,16.1293717 145.607376,15.9546624 146.503608,16.0100218 C147.078194,16.0474849 147.70123,16.2174572 148.018452,16.6807627 C148.303377,17.0983749 148.265368,17.6393569 148.386938,18.1246001 C148.39974,18.1951315 148.430765,18.2614345 148.477161,18.3174132 C148.539142,18.3717553 148.617131,18.4062388 148.700356,18.416101 C148.841051,18.4430322 148.985263,18.4485844 149.127744,18.4325557 L149.128695,18.4325557 C149.166356,18.429683 149.203787,18.4244924 149.240758,18.4170158 C149.46263,18.3776282 149.672372,18.29047 149.854286,18.1620633 C149.972062,18.1319069 150.090781,18.1072335 150.210443,18.0880431 C150.215278,18.0875703 150.220053,18.0866512 150.224705,18.0852987 C150.700524,19.5300451 150.76226,21.078968 151.151651,22.5502174 C151.344441,23.2821829 151.620819,24.005015 151.659748,24.7580005 C151.662601,24.7908955 151.663551,24.8247081 151.664502,24.8585178 C151.670207,25.1006806 151.650265,25.3446672 151.660699,25.5859181 C151.664334,25.6945538 151.677043,25.8027324 151.698702,25.9094078 C151.741287,26.0809863 151.794243,26.2500272 151.857301,26.4156681 L151.860153,26.4238897 C151.878193,26.4768928 151.895295,26.5308106 151.909541,26.5847227 C151.919975,26.6240154 151.929483,26.6623991 151.937089,26.7016918 L151.938028,26.7044304 C152.008338,27.1082325 152.018882,27.5195786 151.969345,27.9262248 L151.969345,27.9262248 Z" id="Path" fill="#FBBEBE" fill-rule="nonzero"></path>
                <circle id="Oval" fill="#FBBEBE" fill-rule="nonzero" cx="145.5" cy="12.5" r="5.5"></circle>
                <path d="M179.534464,42 C179.376908,40.5543407 178.849782,39.170318 178.001363,37.9746856 C178.142328,38.7919605 178.283603,39.6089384 178.425185,40.4256196 C178.065538,40.527058 177.678415,40.4110283 177.439362,40.1301451 C177.21047,39.8515452 177.035341,39.5347691 176.922485,39.195212 C176.304895,37.7007595 175.497337,36.2877708 174.518742,34.9893701 C171.058208,34.7082636 167.637286,33.3099126 164.59412,31.679844 C161.550044,30.0506717 158.701277,28.0972918 155.697733,26.398971 C155.177067,26.092148 154.634553,25.8220231 154.074344,25.590664 C153.13459,25.2233296 152.079666,25.0329379 151.188722,24.6009475 C151.128845,24.5722058 151.068967,24.5416746 151.009988,24.5102385 C150.808717,24.4035354 150.618098,24.2787573 150.440612,24.1375268 C150.344681,24.0615963 150.253607,23.9800137 150.167901,23.8932366 C149.723369,23.3891273 149.370906,22.814376 149.125866,22.1940195 C148.6477,21.1629943 148.477244,19.9191121 148,18.8880841 C148.219348,18.6882553 148.465802,18.5187271 148.732457,18.384248 L148.733379,18.384248 C148.772067,18.3644856 148.810767,18.3456251 148.850388,18.3276665 C149.039215,18.240976 149.235626,18.1709427 149.437268,18.1184058 C149.551521,18.0887678 149.666689,18.0645186 149.782772,18.0456581 C149.787462,18.0451934 149.792095,18.0442902 149.796607,18.0429609 C150.334934,17.9574636 150.886481,18 151.404329,18.1669013 C152.161662,18.4165774 152.800139,18.9150276 153.436795,19.3865343 C154.471085,20.0968209 155.463117,20.8638452 156.408093,21.6838956 C156.93325,22.1742457 157.412339,22.713117 157.977115,23.1585877 C158.44643,23.5116713 158.941238,23.8313275 159.457694,24.1150729 C162.513772,25.889729 165.570142,27.6640893 168.626804,29.4381537 C169.661457,30.0389895 170.697036,30.6398224 171.708681,31.275682 C173.245457,32.2420483 174.726947,33.2892397 176.207534,34.3355376 C177.080036,34.9516376 177.952236,35.5680373 178.824134,36.1847367 C179.110213,36.362625 179.361381,36.5889129 179.565797,36.8529314 C179.746419,37.1527009 179.858609,37.48691 179.89472,37.8327753 C180.113579,39.2301025 179.990131,40.6580824 179.534464,42 Z" id="Path" fill="#FBBEBE" fill-rule="nonzero"></path>
                <path d="M152.92653,31.9641161 C152.566537,33.603661 150.934795,34.5947486 150.081835,36.0349585 C149.02175,37.8223845 149.454098,39.9000499 149.852096,41.9474129 C149.124866,42.5839469 148.397333,43.2204771 147.6695,43.8570033 C147.267903,44.2069545 146.866304,44.5587388 146.433944,44.8682848 C145.803512,45.2972375 145.144666,45.6814748 144.462106,46.0182553 C143.818094,46.3544344 143.174083,46.6909153 142.530072,47.0276977 C141.931388,47.3695403 141.29702,47.6424969 140.638736,47.8415036 C139.369704,48.1721658 138.021989,47.9406982 136.766528,47.5576802 C136.618474,47.5182537 136.476154,47.4592724 136.343211,47.3822464 C136.264892,47.3348253 136.196637,47.2720683 136.142413,47.1976234 C136.018628,46.9722811 135.973675,46.7109994 136.014884,46.4563846 C136.142413,44.3107436 136.658885,42.2101083 137.173557,40.1250869 C137.448653,38.8742238 137.818492,37.6468088 138.279772,36.453796 C138.732227,35.4315546 139.252307,34.4415881 139.836446,33.4906857 C140.481148,32.2942587 141.244928,31.1680936 142.115808,30.1298484 C142.539785,29.7302465 142.896639,29.2630024 143.172274,28.7465713 C143.493377,28.0025799 143.369467,27.1492765 143.434581,26.3391515 C143.484412,25.7304851 143.643515,25.1362181 143.904028,24.5857176 L143.904028,24.5847981 C144.043373,24.2882759 144.211219,24.0064549 144.405121,23.7434395 C144.492868,23.9510236 144.580606,24.1583012 144.668337,24.3652723 C144.726229,24.5012116 144.783512,24.6368494 144.840186,24.7721854 C144.914361,24.9467027 144.98793,25.1206071 145.060893,25.2938984 C145.271641,25.7917355 145.482093,26.2892623 145.692249,26.7864787 C145.919353,27.4127392 146.242975,27.9983935 146.651018,28.5215518 C147.030452,29.0664956 147.663955,29.3688953 148.319262,29.31788 C148.974568,29.2668647 149.555276,28.8699393 149.848477,28.2726313 C150.152505,27.7245311 150.372706,27.1326774 150.501529,26.5173584 C150.680159,25.7681447 150.704793,24.989583 150.573896,24.2302699 C150.355905,22.767995 149.74355,21.274501 149.298525,19.9160211 C149.117388,19.4630677 149.012513,18.9824181 148.988285,18.4941602 C148.989185,18.4392938 148.994629,18.3846015 149.00456,18.3306622 C149.007277,18.3168873 149.009993,18.30219 149.012707,18.288415 C149.198085,18.1997551 149.39091,18.1281308 149.588871,18.0744003 C149.701038,18.0440891 149.814103,18.019289 149.928067,18 C150.319729,20.1529911 150.711986,22.3059812 151.104838,24.4589703 C151.113893,24.50949 151.123839,24.5600068 151.132882,24.6114431 C151.188962,24.9200607 151.245947,25.2286842 151.309258,25.5363824 C151.366255,25.8156083 151.427756,26.0939177 151.496497,26.3703939 L151.499214,26.3786577 C151.522733,26.4723586 151.547155,26.5651167 151.572486,26.6578865 L151.57338,26.6606392 C151.64303,26.9141513 151.720815,27.1658216 151.808549,27.4138197 C152.340408,28.9082332 153.267534,30.4127553 152.92653,31.9641161 Z" id="Path" fill="#6C63FF" fill-rule="nonzero"></path>
                <path d="M175.002746,54.1045743 C174.986008,54.4161904 175.045985,54.727145 175.177352,55.0098424 C175.509939,55.6214214 176.307944,55.7604453 176.998488,55.8176394 C181.032246,56.1512509 185.090512,56.0268438 189.096602,55.4467689 C189.313954,55.43181 189.524827,55.3659644 189.712407,55.2544821 C190.28198,54.8526946 189.930891,53.873488 189.308949,53.5600132 C188.687008,53.2465384 187.948951,53.3220839 187.266544,53.1863375 C186.588575,53.0146339 185.94295,52.7329079 185.355054,52.3522373 C183.971116,51.5522298 182.607376,50.7181709 181.263832,49.8500607 C180.463927,49.3332024 179.519855,48.7815968 178.619016,49.0880472 C176.178778,49.9186424 174.986685,51.4559952 175.002746,54.1045743 Z" id="Path" fill="#3F3D56" fill-rule="nonzero"></path>
                <path d="M144.752327,23.5983217 L144.752327,23.5992236 C144.746038,23.63706 144.739732,23.6739974 144.731639,23.7109376 C144.721749,23.7722088 144.710054,23.8343618 144.698359,23.8956101 C144.586822,24.4676998 144.450097,25.0370809 144.292684,25.6028631 C143.860918,27.1659627 143.282544,28.7038408 142.708662,30.2191947 C141.168713,34.2823563 139.628466,38.3458196 138.08792,42.4095843 C137.699331,43.4330336 137.31165,44.457382 136.869993,45.4601107 C136.722488,45.7943565 136.570461,46.1312994 136.41934,46.4718527 C135.87784,47.6907971 135.357934,48.9493904 135.185228,50.246719 C135.024206,51.1005341 135.005665,51.9751837 135.130359,52.8350746 C135.303066,53.6855473 135.818481,54.5161956 136.62533,54.830617 C137.019313,54.9846769 137.583291,55.1909861 137.475355,55.6009075 C137.416896,55.8261364 137.16143,55.9360524 136.932054,55.9738887 C136.318843,56.0717762 135.693922,55.8915364 135.2266,55.4820014 C134.795735,55.099108 134.464726,54.503595 133.891742,54.4396324 C133.495059,54.396399 133.129867,54.6342286 132.766465,54.8008977 C131.284087,55.4792957 129.557037,55.004507 128,54.5225146 C128.122332,53.8909661 128.755585,53.4747401 129.384336,53.3486102 C130.013087,53.2215812 130.663423,53.3116757 131.304758,53.2945569 C131.510148,53.3055267 131.713941,53.2530036 131.888534,53.1441018 C132.045045,53.0002034 132.154737,52.8124911 132.20336,52.6053477 C132.616476,51.3792974 132.923737,50.1199875 133.121758,48.8412897 C133.328636,47.5052199 133.414998,46.1484296 133.710025,44.8285794 C133.939403,43.7988198 134.293812,42.8015023 134.597832,41.7906623 C135.185757,39.7093973 135.668505,37.5997579 136.044238,35.4697834 C136.23419,34.5848612 136.370266,33.6891936 136.451714,32.7877345 C136.502983,32.0399683 136.478694,31.2885946 136.550648,30.5435312 C136.671418,29.5742018 136.87332,28.6167543 137.15422,27.6812992 C137.429462,26.6605536 137.704411,25.6404065 137.979067,24.6208577 C138.386546,23.1118113 138.823689,21.544208 139.856324,20.3712026 C140.581279,19.5365044 141.619196,19.0400519 142.723046,19 C142.927814,19 143.132002,19.0218031 143.33201,19.0657656 C143.365281,19.0738711 143.398573,19.0819824 143.431841,19.0909898 C143.649801,19.1480657 143.858933,19.23476 144.053411,19.3486581 C144.371828,19.1459478 144.533731,19.2171197 144.745123,19.5297402 C144.930435,19.8605919 145.017799,20.2374749 144.996988,20.6162587 C145.014806,21.6159604 144.932845,22.6149438 144.752327,23.5983217 L144.752327,23.5983217 Z" id="Path" fill="#FBBEBE" fill-rule="nonzero"></path>
                <path d="M145,25.1549628 L144.988658,25.1690596 L144.927414,25.2451984 L144.31947,26 L144.021552,24.4443425 L143,19.1109193 C143.172133,19.1106588 143.343779,19.1336653 143.511911,19.1795333 C143.519186,19.1184323 143.531085,19.0583213 143.547447,19 L143.595832,19.2058539 L143.942153,20.6703347 L144.597727,23.4507796 L144.705864,23.9085477 L144.705864,23.9094887 L145,25.1549628 Z" id="Path" fill="#6C63FF" fill-rule="nonzero"></path>
                <path d="M150,8.4982945 C149.998724,9.42646696 149.601966,10.3161048 148.897104,10.9712848 C148.77071,11.089359 148.635229,11.1986556 148.491746,11.2983006 C147.844584,11.7533508 147.056261,11.9996475 146.245811,12 L141.746596,12 C139.676473,11.9970194 138,10.4308894 138,8.5 C138,6.56911063 139.676473,5.00298059 141.746596,5 L146.245814,5 C148.315542,5.00502603 149.992609,6.56778171 150,8.4982945 L150,8.4982945 Z" id="Path" fill="#2F2E41" fill-rule="nonzero"></path>
                <circle id="Oval" fill="#2F2E41" fill-rule="nonzero" cx="153.5" cy="5.5" r="3.5"></circle>
                <path d="M153.141178,2 C153.093845,2 153.046945,2.00170372 153,2.00323653 C155.07469,2.07164846 156.717642,3.61698664 156.717642,5.5 C156.717642,7.38301336 155.07469,8.92835154 153,8.99676347 C153.046942,8.99829628 153.093842,9 153.141178,9 C155.272347,9 157,7.43299662 157,5.5 C157,3.56700338 155.272347,2 153.141178,2 L153.141178,2 Z" id="Path" fill="#000000" fill-rule="nonzero" opacity="0.1"></path>
                <path d="M135.858702,2 C135.906076,2 135.953015,2.00170372 136,2.00323653 C133.923547,2.07164846 132.279199,3.61698664 132.279199,5.5 C132.279199,7.38301336 133.923547,8.92835154 136,8.99676347 C135.953,8.99829628 135.906076,9 135.858702,9 C133.72705,8.99829923 132,7.43179411 132,5.5 C132,3.56820589 133.72705,2.00170077 135.858702,2 Z" id="Path" fill="#000000" fill-rule="nonzero" opacity="0.1"></path>
                <path d="M148,11 C147.352199,11.6484974 146.563095,11.9994977 145.751844,12 L141.248177,12 C140.436919,11.9994976 139.647809,11.6484977 139,11 L148,11 Z" id="Path" fill="#000000" fill-rule="nonzero" opacity="0.1"></path>
                <path d="M176,38.6961308 C176,38.6961308 177.044238,41.6542597 178,40.8666298 L177.238215,37 L176,38.6961308 Z" id="Path" fill="#FBBEBE" fill-rule="nonzero"></path>
                <path d="M290.951411,120.638635 C293.345805,121.50919 296.02883,120.772228 297.642754,118.800686 C299.256678,116.829144 299.449414,114.053124 298.123429,111.877419 C296.797444,109.701713 294.242009,108.600965 291.750291,109.132202 L291.900442,112.220226 L290.439614,109.573762 C289.005892,110.247506 287.89828,111.462973 287.36018,112.953059 C287.169079,113.475016 287.052905,114.021425 287.015122,114.575988 C286.82565,117.249411 288.432421,119.724149 290.951411,120.638635 Z" id="Path" fill="#57B894" fill-rule="nonzero"></path>
                <path d="M298.1499,157 C297.625197,154.354358 299.898843,152.008916 302.144686,150.484389 C304.390529,148.959862 307.014674,147.461944 307.780952,144.874737 C308.882235,141.156466 305.601849,137.751227 303.048621,134.814695 C301.15437,132.635455 299.527652,130.241585 298.20251,127.683179 C297.671351,126.657333 297.183176,125.584942 297.043388,124.440473 C296.842075,122.792307 297.376832,121.152223 297.915587,119.58009 C299.71034,114.342844 301.629245,109.149481 303.672299,104" id="Path" stroke="#3F3D56"></path>
                <path d="M290.951412,120.638635 C293.345805,121.50919 296.02883,120.772228 297.642754,118.800686 C299.256678,116.829144 299.449414,114.053124 298.123429,111.877419 C296.797444,109.701713 294.242009,108.600965 291.750291,109.132202 L291.900442,112.220226 L290.439611,109.573762 C289.00589,110.247507 287.898279,111.462973 287.36018,112.953059 C287.169079,113.475016 287.052905,114.021425 287.015122,114.575988 C286.825649,117.249412 288.43242,119.72415 290.951412,120.638635 Z" id="Path" stroke="#3F3D56"></path>
                <path d="M297.360195,102.952984 C298.056709,101.030931 299.684697,99.5964631 301.678959,99.1475948 L302.172998,102.083972 L303.088938,99 C305.69839,99.0387021 307.983521,100.76003 308.74117,103.257676 C309.49882,105.755321 308.555182,108.456321 306.407098,109.938554 C304.259015,111.420786 301.399258,111.344225 299.333539,109.749181 C297.26782,108.154136 296.470017,105.406515 297.360187,102.952984 L297.360195,102.952984 Z" id="Path" fill="#57B894" fill-rule="nonzero"></path>
                <path d="M297.360195,101.952984 C298.05671,100.030932 299.684698,98.596466 301.678959,98.1475977 L302.172998,101.083975 L303.088938,98 C305.69839,98.0387021 307.983521,99.76003 308.74117,102.257676 C309.49882,104.755321 308.555182,107.456321 306.407098,108.938554 C304.259015,110.420786 301.399258,110.344225 299.333539,108.749181 C297.26782,107.154136 296.470017,104.406515 297.360187,101.952984 L297.360195,101.952984 Z" id="Path" stroke="#3F3D56"></path>
                <path d="M301.956207,134.639452 C304.822726,135.679372 308.013184,134.402749 309.371414,131.672347 C310.729644,128.941945 309.823298,125.626895 307.264902,123.967566 L306.561301,126.33679 L306.06238,123.366686 C306.057448,123.364358 306.05234,123.362421 306.047105,123.360892 C304.032258,122.628541 301.77978,123.027322 300.138746,124.406915 C298.497712,125.786507 297.717642,127.937144 298.092584,130.048138 C298.467526,132.159131 299.940471,133.909505 301.956189,134.639452 L301.956207,134.639452 Z" id="Path" fill="#57B894" fill-rule="nonzero"></path>
                <path d="M301.956207,133.639452 C304.822726,134.679372 308.013184,133.402749 309.371414,130.672347 C310.729644,127.941945 309.823298,124.626895 307.264902,122.967566 L306.561301,125.33679 L306.06238,122.366686 C306.057447,122.364358 306.05234,122.362421 306.047105,122.360892 C304.032258,121.628541 301.77978,122.027322 300.138746,123.406915 C298.497712,124.786507 297.717642,126.937144 298.092584,129.048138 C298.467526,131.159131 299.940471,132.909505 301.956189,133.639452 L301.956207,133.639452 Z" id="Path" stroke="#3F3D56"></path>
                <path d="M295.092198,145.038695 C295.583162,147.832786 297.96372,149.90108 300.79859,149.996563 C303.63346,150.092047 306.147752,148.18862 306.825552,145.433894 C307.503352,142.679169 306.159388,139.826128 303.603963,138.594923 C301.048537,137.363718 297.980154,138.09089 296.2488,140.338013 L298.922925,144.363525 L295.269069,142.226913 C294.985761,143.136472 294.925102,144.100796 295.092198,145.038695 L295.092198,145.038695 Z" id="Path" fill="#57B894" fill-rule="nonzero"></path>
                <path d="M296.092199,144.038695 C296.583163,146.832786 298.963721,148.90108 301.798591,148.996563 C304.633461,149.092047 307.147752,147.18862 307.825552,144.433894 C308.503352,141.679169 307.159389,138.826128 304.603963,137.594923 C302.048537,136.363718 298.980155,137.09089 297.248801,139.338013 L299.922926,143.363528 L296.26907,141.226913 C295.985761,142.136472 295.925101,143.100796 296.092199,144.038695 Z" id="Path" stroke="#3F3D56"></path>
                <path d="M2.63426197,135.75908 C4.23052235,136.339464 6.01921121,135.848162 7.09516511,134.533799 C8.17111902,133.219435 8.29961071,131.368747 7.41561715,129.918273 C6.53162359,128.467799 4.82799449,127.73397 3.16684889,128.08814 L3.26695242,130.146821 L2.29306707,128.382514 C1.33725423,128.831679 0.598848941,129.641993 0.240118513,130.635387 C0.112718248,130.983359 0.035268554,131.347632 0.0100795687,131.717342 C-0.116224191,133.499614 0.954949921,135.149425 2.63426197,135.75908 L2.63426197,135.75908 Z" id="Path" fill="#57B894" fill-rule="nonzero"></path>
                <path d="M7.7317561,160 C7.39785268,158.252879 8.84472014,156.704013 10.2738904,155.697237 C11.7030606,154.690461 13.3729697,153.701285 13.8606059,151.992751 C14.5614239,149.537288 12.4738976,147.288548 10.8491207,145.349327 C9.64368894,143.910206 8.60850665,142.329348 7.76523592,140.639834 C7.39861978,139.976204 7.14891228,139.251275 7.02761176,138.498426 C6.89949875,137.410015 7.23980781,136.326942 7.58264789,135.288739 C8.72476261,131.830179 9.94588225,128.400599 11.2460068,125" id="Path" stroke="#3F3D56"></path>
                <path d="M2.63426921,135.759084 C4.23052943,136.339462 6.0192152,135.848159 7.09516687,134.533796 C8.17111855,133.219433 8.29961008,131.368749 7.41561866,129.918276 C6.53162725,128.467803 4.82800154,127.733973 3.16685675,128.088138 L3.2669604,130.146824 L2.29307099,128.3825 C1.33725684,128.831666 0.598850604,129.64198 0.240120037,130.635375 C0.112720993,130.983347 0.035271246,131.347619 0.0100808243,131.717327 C-0.11623146,133.499608 0.954947232,135.14943 2.63426921,135.759084 Z" id="Path" stroke="#3F3D56"></path>
                <path d="M7.24012188,123.63533 C7.70446546,122.353958 8.78979317,121.397644 10.1193046,121.098398 L10.4486641,123.055988 L11.0592986,121 C12.798932,121.025804 14.3223497,122.173357 14.8274477,123.838453 C15.3325457,125.503549 14.7034539,127.304214 13.2713994,128.292369 C11.8393449,129.280523 9.93284243,129.229484 8.55569629,128.166123 C7.17855015,127.102762 6.64667912,125.271017 7.24012188,123.63533 L7.24012188,123.63533 Z" id="Path" fill="#57B894" fill-rule="nonzero"></path>
                <path d="M7.24012293,123.635327 C7.70446734,122.353956 8.7897949,121.397644 10.1193057,121.098398 L10.4486651,123.055988 L11.0592996,121 C12.7989333,121.025805 14.3223508,122.173358 14.8274482,123.838455 C15.3325455,125.503551 14.7034529,127.304216 13.2713977,128.29237 C11.8393425,129.280524 9.93283984,129.229483 8.55569424,128.166121 C7.17854864,127.10276 6.64667884,125.271014 7.24012293,123.635327 L7.24012293,123.635327 Z" id="Path" stroke="#3F3D56"></path>
                <path d="M9.63791145,144.759638 C11.5487642,145.452904 13.6755639,144.601851 14.5809769,142.781636 C15.4863899,140.961421 14.8822077,138.751451 13.1767485,137.645267 L12.7077202,139.2247 L12.3751351,137.244694 C12.3718489,137.243143 12.3684464,137.241853 12.3649587,137.240833 C11.0217688,136.752314 9.52001073,137.018015 8.42589427,137.937759 C7.33177781,138.857503 6.81170485,140.291408 7.06175916,141.698847 C7.31181348,143.106286 8.29396485,144.273204 9.63791145,144.759638 L9.63791145,144.759638 Z" id="Path" fill="#57B894" fill-rule="nonzero"></path>
                <path d="M9.63662584,143.759637 C11.5479367,144.452906 13.6752464,143.601849 14.5808765,141.781629 C15.4865065,139.961408 14.8821794,137.751431 13.1763114,136.645243 L12.7071707,138.224681 L12.3745058,136.244666 C12.3712188,136.243115 12.3678154,136.241824 12.3643269,136.240805 C10.2879262,135.487619 7.99405424,136.560189 7.2408204,138.636457 C6.48758655,140.712726 7.56022518,143.006451 9.63662584,143.759637 L9.63662584,143.759637 Z" id="Path" stroke="#3F3D56"></path>
                <path d="M6.06146852,151.692471 C6.3887812,153.555198 7.97582272,154.934058 9.86573591,154.997709 C11.7556491,155.061361 13.4318407,153.792406 13.8837033,151.955921 C14.3355659,150.119436 13.4395863,148.217411 11.7359675,147.396611 C10.0323486,146.575812 7.98676168,147.060598 6.83252943,148.558683 L8.61527785,151.24236 L6.179375,149.817947 C5.99050509,150.424321 5.95006806,151.067205 6.06146852,151.692471 L6.06146852,151.692471 Z" id="Path" fill="#57B894" fill-rule="nonzero"></path>
                <path d="M6.06146958,150.692471 C6.38878221,152.555198 7.97582352,153.934058 9.86573646,153.997709 C11.7556494,154.061361 13.4318408,152.792406 13.8837033,150.955921 C14.3355659,149.119436 13.4395864,147.217411 11.7359678,146.396611 C10.0323492,145.575812 7.98676248,146.060598 6.83253038,147.558683 L8.61527857,150.24236 L6.17937311,148.817947 C5.9905042,149.424321 5.95006818,150.067205 6.06146958,150.692471 L6.06146958,150.692471 Z" id="Path" stroke="#3F3D56"></path>
                <ellipse id="Oval" fill="#2F2E41" fill-rule="nonzero" cx="139" cy="92.5" rx="5" ry="6.5"></ellipse>
                <ellipse id="Oval" fill="#2F2E41" fill-rule="nonzero" cx="166" cy="92.5" rx="5" ry="6.5"></ellipse>
                <path d="M162,111.000037 C162,113.761128 157.970323,116 153,116 C148.029677,116 144,113.761128 144,111.000037 C144,108.608387 147.022258,106.608402 151.060645,106.119517 C151.703591,106.038384 152.351488,105.99848 153,106 C154.086655,105.996719 155.170356,106.108511 156.23129,106.333404 C159.604839,107.052843 162,108.872274 162,111.000037 Z" id="Path" fill="#2F2E41" fill-rule="nonzero"></path>
                <ellipse id="Oval" stroke="#3F3D56" cx="140" cy="90.5" rx="5" ry="6.5"></ellipse>
                <ellipse id="Oval" stroke="#3F3D56" cx="167" cy="90.5" rx="5" ry="6.5"></ellipse>
                <ellipse id="Oval" stroke="#3F3D56" cx="154" cy="110" rx="9" ry="5"></ellipse>
                <path d="M156,106.800039 C156.002105,107.11441 155.877877,107.417702 155.652645,107.648011 C155.437591,107.871058 155.134273,107.998653 154.8159,108 L152.184625,108 C151.509651,107.977676 150.980498,107.441423 151.000552,106.800039 C150.999178,106.556304 151.074297,106.31771 151.216316,106.114726 C151.798601,106.03687 152.385987,105.998552 152.974007,106.000065 C153.960056,105.996979 154.943047,106.104384 155.902616,106.320054 C155.967564,106.472525 156.000632,106.635556 156,106.800039 Z" id="Path" fill="#FFFFFF" fill-rule="nonzero"></path>
                <circle id="Oval" fill="#FFFFFF" fill-rule="nonzero" cx="139.5" cy="88.5" r="1.5"></circle>
                <circle id="Oval" fill="#FFFFFF" fill-rule="nonzero" cx="166.5" cy="88.5" r="1.5"></circle>
                <circle id="Oval" fill="#6C63FF" fill-rule="nonzero" opacity="0.3" cx="168.5" cy="102.5" r="1.5"></circle>
                <circle id="Oval" fill="#6C63FF" fill-rule="nonzero" opacity="0.3" cx="133.5" cy="102.5" r="1.5"></circle>
            </g>
        </g>
    </g>
</svg>