<?xml version="1.0" encoding="UTF-8"?>
<svg width="38px" height="32px" viewBox="0 0 38 32" version="1.1" xmlns="http://www.w3.org/2000/svg" xmlns:xlink="http://www.w3.org/1999/xlink">
    <!-- Generator: Sketch 58 (84663) - https://sketch.com -->
    <title>repair_shop</title>
    <desc>Created with Sketch.</desc>
    <g id="Landingpage-Tonero-2020" stroke="none" stroke-width="1" fill="none" fill-rule="evenodd">
        <g id="Desktop-HD" transform="translate(-160.000000, -653.000000)">
            <g id="Group-5" transform="translate(154.000000, 643.000000)">
                <g id="repair_shop" transform="translate(0.000000, 2.000000)">
                    <polygon id="grid" points="0 0 50 0 50 48 0 48"></polygon>
                    <g transform="translate(6.250000, 8.000000)" fill-rule="nonzero">
                        <path d="M2.08333333,17 L2.08333333,32 C2.1874999,32 2.60416667,32 3.125,32 L22.9166667,32 L22.9166667,21 L22.9166667,20 L31.25,20 L31.25,21 L31.25,32 L34.375,32 C34.8958333,32 35.4166667,32 35.4166667,32 L35.4166667,17 L2.08333333,17 Z M18.75,28 L6.25,28 L6.25,21 L18.75,21 L18.75,28 Z M33.3333333,3 L4.16666667,3 C3.64583333,3 3.22916656,2.5999999 3.22916656,2.0999999 L3.22916656,0.9 C3.22916656,0.4 3.64583333,0 4.16666667,0 L33.3333333,0 C33.8541667,0 34.2708349,0.4 34.2708349,0.9 L34.2708349,2.2 C34.2708349,2.5999999 33.8541667,3 33.3333333,3 Z" id="shop" fill="#BFBFBF"></path>
                        <path d="M34.4791651,5.5 C34.375,5.1999998 34.0625008,5 33.7500016,5 L3.7499999,5 C3.4375,5 3.125,5.1999998 3.02083344,5.5 C3.02083344,5.5 0,10.5 0,11.1000004 L0,14.1999998 C0,14.6999998 0.3125,15 0.833333333,15 L36.7708333,15 C37.1875016,15 37.6041658,14.6999998 37.6041658,14.1999998 L37.6041658,11.1000004 C37.5,10.6000004 34.4791651,5.5 34.4791651,5.5 Z" id="tent" fill="#228D27"></path>
                    </g>
                </g>
            </g>
        </g>
    </g>
</svg>