<?xml version="1.0" encoding="UTF-8"?>
<svg width="18px" height="18px" viewBox="0 0 18 18" version="1.1" xmlns="http://www.w3.org/2000/svg" xmlns:xlink="http://www.w3.org/1999/xlink">
    <!-- Generator: Sketch 61 (89581) - https://sketch.com -->
    <title>Instagram</title>
    <desc>Created with Sketch.</desc>
    <defs>
        <polygon id="path-1" points="0 17.9921785 17.9943215 17.9921785 17.9943215 0 0 0"></polygon>
        <polygon id="path-3" points="0 17.9921785 17.9943215 17.9921785 17.9943215 0 0 0"></polygon>
        <polygon id="path-5" points="0 17.9921785 17.9943215 17.9921785 17.9943215 0 0 0"></polygon>
    </defs>
    <g id="Symbols" stroke="none" stroke-width="1" fill="none" fill-rule="evenodd" opacity="0.511207217">
        <g id="Copyright-27&quot;" transform="translate(-1830.000000, -29.000000)">
            <g id="Instagram" transform="translate(1830.000000, 29.000000)">
                <g id="Fill-1-Clipped">
                    <mask id="mask-2" fill="white">
                        <use xlink:href="#path-1"></use>
                    </mask>
                    <g id="path-1"></g>
                    <path d="M8.99717856,0 C6.55367856,0 6.24728571,0.0103571428 5.28764286,0.0541428571 C4.33,0.0978214288 3.67596429,0.249928572 3.10367857,0.472357143 C2.51203571,0.702250001 2.01028571,1.00989285 1.51007143,1.51007143 C1.00989285,2.01028571 0.702250001,2.51203571 0.472357143,3.10367857 C0.249928572,3.67596429 0.0978214288,4.33 0.0541428571,5.28764286 C0.0103571428,6.24728571 0,6.55367856 0,8.99717856 C0,11.4406429 0.0103571428,11.7470357 0.0541428571,12.7066785 C0.0978214288,13.6643214 0.249928572,14.3183571 0.472357143,14.8906428 C0.702250001,15.4822857 1.00989285,15.9840357 1.51007143,16.48425 C2.01028571,16.9844286 2.51203571,17.2920714 3.10367857,17.522 C3.67596429,17.7443929 4.33,17.8965 5.28764286,17.9401785 C6.24728571,17.9839643 6.55367856,17.9943214 8.99717856,17.9943214 C11.4406429,17.9943214 11.7470357,17.9839643 12.7066785,17.9401785 C13.6643214,17.8965 14.3183571,17.7443929 14.8906428,17.522 C15.4822857,17.2920714 15.9840357,16.9844286 16.48425,16.48425 C16.9844286,15.9840357 17.2920714,15.4822857 17.522,14.8906428 C17.7443929,14.3183571 17.8965,13.6643214 17.9401785,12.7066785 C17.9839643,11.7470357 17.9943214,11.4406429 17.9943214,8.99717856 C17.9943214,6.55367856 17.9839643,6.24728571 17.9401785,5.28764286 C17.8965,4.33 17.7443929,3.67596429 17.522,3.10367857 C17.2920714,2.51203571 16.9844286,2.01028571 16.48425,1.51007143 C15.9840357,1.00989285 15.4822857,0.702250001 14.8906428,0.472357143 C14.3183571,0.249928572 13.6643214,0.0978214288 12.7066785,0.0541428571 C11.7470357,0.0103571428 11.4406429,0 8.99717856,0 Z M8.99717856,1.62110714 C11.3995,1.62110714 11.6840714,1.63028571 12.6327857,1.67357143 C13.51,1.71357143 13.9863928,1.86014286 14.3034286,1.98335714 C14.7233929,2.14657143 15.0231072,2.34153571 15.3379286,2.65639286 C15.6527857,2.97121429 15.84775,3.27092857 16.0109643,3.69089286 C16.1341786,4.00792857 16.28075,4.48432143 16.32075,5.36153572 C16.3640357,6.31025 16.3732143,6.59482142 16.3732143,8.99717856 C16.3732143,11.3995 16.3640357,11.6840714 16.32075,12.6327857 C16.28075,13.51 16.1341786,13.9863928 16.0109643,14.3034286 C15.84775,14.7233929 15.6527857,15.0231072 15.3379286,15.3379286 C15.0231072,15.6527857 14.7233929,15.84775 14.3034286,16.0109643 C13.9863928,16.1341786 13.51,16.28075 12.6327857,16.32075 C11.6842143,16.3640357 11.3996785,16.3732143 8.99717856,16.3732143 C6.59464284,16.3732143 6.31014286,16.3640357 5.36153572,16.32075 C4.48432143,16.28075 4.00792857,16.1341786 3.69089286,16.0109643 C3.27092857,15.84775 2.97121429,15.6527857 2.65639286,15.3379286 C2.34157143,15.0231072 2.14657143,14.7233929 1.98335714,14.3034286 C1.86014286,13.9863928 1.71357143,13.51 1.67357143,12.6327857 C1.63028571,11.6840714 1.62110714,11.3995 1.62110714,8.99717856 C1.62110714,6.59482142 1.63028571,6.31025 1.67357143,5.36153572 C1.71357143,4.48432143 1.86014286,4.00792857 1.98335714,3.69089286 C2.14657143,3.27092857 2.34153571,2.97121429 2.65639286,2.65639286 C2.97121429,2.34153571 3.27092857,2.14657143 3.69089286,1.98335714 C4.00792857,1.86014286 4.48432143,1.71357143 5.36153572,1.67357143 C6.31025,1.63028571 6.59482142,1.62110714 8.99717856,1.62110714 L8.99717856,1.62110714 Z" id="Fill-1" fill="#FFFFFF" fill-rule="nonzero" mask="url(#mask-2)"></path>
                </g>
                <g id="Fill-4-Clipped">
                    <mask id="mask-4" fill="white">
                        <use xlink:href="#path-3"></use>
                    </mask>
                    <g id="path-1"></g>
                    <path d="M9.00001742,11.9210545 C7.38673862,11.9210545 6.07894554,10.6132614 6.07894554,9.00001742 C6.07894554,7.38673862 7.38673862,6.07894554 9.00001742,6.07894554 C10.6132614,6.07894554 11.9210545,7.38673862 11.9210545,9.00001742 C11.9210545,10.6132614 10.6132614,11.9210545 9.00001742,11.9210545 Z M9.00001742,4.5 C6.51470265,4.5 4.5,6.51470265 4.5,9.00001742 C4.5,11.4852974 6.51470265,13.5 9.00001742,13.5 C11.4852974,13.5 13.5,11.4852974 13.5,9.00001742 C13.5,6.51470265 11.4852974,4.5 9.00001742,4.5 L9.00001742,4.5 Z" id="Fill-4" fill="#FFFFFF" fill-rule="nonzero" mask="url(#mask-4)"></path>
                </g>
                <g id="Fill-5-Clipped">
                    <mask id="mask-6" fill="white">
                        <use xlink:href="#path-5"></use>
                    </mask>
                    <g id="path-1"></g>
                    <path d="M14.6487857,4.07908738 C14.6487857,4.61165264 14.2170493,5.04335714 13.6844841,5.04335714 C13.1519507,5.04335714 12.7202143,4.61165264 12.7202143,4.07908738 C12.7202143,3.54652211 13.1519507,3.11478571 13.6844841,3.11478571 C14.2170493,3.11478571 14.6487857,3.54652211 14.6487857,4.07908738" id="Fill-5" fill="#FFFFFF" fill-rule="nonzero" mask="url(#mask-6)"></path>
                </g>
            </g>
        </g>
    </g>
</svg>