<?xml version="1.0" encoding="UTF-8"?>
<svg width="5px" height="4px" viewBox="0 0 5 4" version="1.1" xmlns="http://www.w3.org/2000/svg" xmlns:xlink="http://www.w3.org/1999/xlink">
    <!-- Generator: Sketch 61 (89581) - https://sketch.com -->
    <title>Triangle</title>
    <desc>Created with Sketch.</desc>
    <g id="Symbols" stroke="none" stroke-width="1" fill="none" fill-rule="evenodd">
        <g id="Header-navbar-&quot;27---dark" transform="translate(-1798.000000, -32.000000)" fill="#D8D8D8">
            <g id="Header-navbar">
                <g id="Country-switcher">
                    <g transform="translate(1750.000000, 28.000000)">
                        <g id="Lang-Switcher">
                            <polygon id="Triangle" transform="translate(50.500000, 6.000000) scale(-1, -1) translate(-50.500000, -6.000000) " points="50.5 4 53 8 48 8"></polygon>
                        </g>
                    </g>
                </g>
            </g>
        </g>
    </g>
</svg>