<?xml version="1.0" encoding="UTF-8"?>
<svg width="115px" height="110px" viewBox="0 0 115 110" version="1.1" xmlns="http://www.w3.org/2000/svg" xmlns:xlink="http://www.w3.org/1999/xlink">
    <!-- Generator: Sketch 61 (89581) - https://sketch.com -->
    <title>Group</title>
    <desc>Created with Sketch.</desc>
    <defs>
        <linearGradient x1="-30.0824653%" y1="-133.595851%" x2="68.0078125%" y2="136.822067%" id="linearGradient-1">
            <stop stop-color="#EB3376" offset="0%"></stop>
            <stop stop-color="#262356" offset="100%"></stop>
        </linearGradient>
    </defs>
    <g id="Symbols" stroke="none" stroke-width="1" fill="none" fill-rule="evenodd">
        <g id="USPS-327" transform="translate(-840.000000, -383.000000)">
            <g id="USPS">
                <g id="Section">
                    <g id="Content" transform="translate(744.000000, 101.000000)">
                        <g id="Card-1/3" transform="translate(0.000000, 259.000000)">
                            <g id="Group" transform="translate(96.000000, 23.000000)">
                                <ellipse id="Oval" fill="url(#linearGradient-1)" cx="57.5" cy="55" rx="57.5" ry="55"></ellipse>
                                <g id="icon" transform="translate(23.000000, 30.000000)" fill="#FFFFFF" fill-rule="nonzero">
                                    <path d="M46.754386,38.2558459 L46.1508772,37.6643741 C46.122807,37.6368638 46.1087719,37.6231087 46.0807018,37.5955983 C42.7403509,39.5350757 38.8947368,40.5804677 34.9508772,40.5804677 C29.9964912,40.5804677 25.2807018,38.9711142 21.4491228,36 C20.4105263,36.7015131 19.3438596,37.4855571 18.3052632,38.3246217 C17.477193,38.9848693 17,39.9889959 17,41.0343879 L17,46 L35.0070175,46 L53,46 L53,44.3631362 L47.7087719,39.1774415 L46.754386,38.2558459 Z" id="Path"></path>
                                    <path d="M35.7572651,8 L35.006562,8 L34.2558589,8 C30.8052589,8 28,10.9178082 28,14.5068493 L28,21.7260274 C28,22.8630137 28.5531496,23.8493151 29.3960443,24.4383562 L29.3960443,30.6027397 C31.0950039,31.5068493 32.9915169,32 34.9670513,32 C36.9689262,32 38.8917797,31.5068493 40.6039095,30.5753425 L40.6039095,24.4520548 C41.4468042,23.8630137 42,22.8767123 42,21.739726 L42,14.5205479 C42.013124,10.9041096 39.2078652,8 35.7572651,8 Z" id="Path"></path>
                                    <path d="M67.9544236,34.3261618 C64.2815013,31.1312392 60.3270777,29.0154905 59.5227882,28.5895009 C59.4289544,28.5469019 59.3753351,28.4475043 59.3753351,28.3339071 L59.3753351,22.2848537 C60.0991957,21.7736661 60.5683646,20.9074871 60.5683646,19.9277108 L60.5683646,13.651463 C60.5683646,10.5275387 58.1823056,8 55.233244,8 L54.5898123,8 L54,8 C55.8766756,11.2233219 56.9624665,14.9152324 57.0965147,18.7633391 C57.2573727,23.0516351 56.2386059,27.2547332 54.2010724,30.8898451 C54.227882,30.9182444 54.2412869,30.9324441 54.2680965,30.9608434 L54.536193,31.2448365 L54.844504,31.5714286 L55.7560322,32.5370052 L63.7453083,41 L69,41 L69,36.6975043 C69,35.7745267 68.6112601,34.9083477 67.9544236,34.3261618 Z" id="Path"></path>
                                    <path d="M64.2210287,45.4338549 L53.0237604,34.2389758 L52.0562709,33.2716927 L51.7290318,32.9445235 L51.7290318,32.9445235 L51.4444761,32.6600284 L50.6904034,33.4139403 L49.0684357,31.7923186 C55.4993953,24.2105263 55.1437006,12.8307255 47.9728961,5.66145092 C44.2025325,1.89189189 39.2512627,0 34.3142207,0 C29.3771786,0 24.4259088,1.89189189 20.6555453,5.66145092 C13.1148182,13.200569 13.1148182,25.4338549 20.6555453,32.972973 C24.4259088,36.742532 29.3771786,38.6344239 34.3142207,38.6344239 C38.7532902,38.6344239 43.1923597,37.1123755 46.7919898,34.0682788 L48.4139575,35.6899004 L47.6598848,36.4438122 L47.6598848,36.4438122 L47.6598848,36.4438122 L48.2716796,37.0554765 L49.2391691,38.0227596 L60.4364374,49.2176387 C60.9628655,49.7439545 61.6457992,50 62.328733,50 C63.0116668,50 63.6946006,49.7439545 64.2210287,49.2176387 C65.2596571,48.1792319 65.2596571,46.4864865 64.2210287,45.4338549 C64.2210287,45.4480797 64.2210287,45.4338549 64.2210287,45.4338549 Z M45.6964502,30.7112376 C42.5521093,33.8549075 38.4260511,35.4196302 34.3142207,35.4196302 C30.1881625,35.4196302 26.0763321,33.8549075 22.9319912,30.7112376 C16.6433094,24.4238976 16.6433094,14.2389758 22.9319912,7.95163585 C26.0763321,4.80796586 30.2023903,3.24324324 34.3142207,3.24324324 C38.4402789,3.24324324 42.5521093,4.80796586 45.6964502,7.95163585 C51.985132,14.2247511 51.985132,24.4238976 45.6964502,30.7112376 Z" id="Shape"></path>
                                    <path d="M15.9502638,8 L15.3918613,8 L14.7045968,8 C11.5546345,8 9.00602864,10.5286268 9.00602864,13.6538958 L9.00602864,19.9328455 C9.00602864,20.9130435 9.50715901,21.7795954 10.2803316,22.291003 L10.2803316,28.3426604 C10.2803316,28.4563065 10.2230595,28.5415411 10.1228335,28.5983642 C9.26375283,29.0103315 5.03993971,31.1411967 1.11680482,34.3374946 C0.415222306,34.9199311 0,35.786483 0,36.6956522 L0,41 L13.9171063,41 C14.2034665,39.5368059 14.976639,38.2156694 16.1507159,37.2638829 C17.0957046,36.4967714 18.0550113,35.7722772 19,35.1046061 C11.6834966,27.7176065 10.6669179,16.466638 15.9502638,8 Z" id="Path"></path>
                                </g>
                            </g>
                        </g>
                    </g>
                </g>
            </g>
        </g>
    </g>
</svg>