<?xml version="1.0" encoding="UTF-8"?>
<svg width="40px" height="40px" viewBox="0 0 40 40" version="1.1" xmlns="http://www.w3.org/2000/svg" xmlns:xlink="http://www.w3.org/1999/xlink">
    <!-- Generator: Sketch 61 (89581) - https://sketch.com -->
    <title>Group 5</title>
    <desc>Created with Sketch.</desc>
    <g id="Front-End---27-inch" stroke="none" stroke-width="1" fill="none" fill-rule="evenodd">
        <g id="Single-Branche" transform="translate(-754.000000, -1146.000000)" fill-rule="nonzero">
            <g id="Hoe-werkt-het?" transform="translate(712.000000, 963.000000)">
                <g id="USP2">
                    <g transform="translate(42.000000, 32.000000)">
                        <g id="2/3" transform="translate(0.207858, 149.000000)">
                            <g id="Group-5" transform="translate(0.000000, 2.000000)">
                                <g id="percentage" fill="#000000">
                                    <path d="M38.7621013,22.2088958 L38.1544464,21.3810722 C37.4975223,20.479482 37.4810992,19.2582372 38.1298118,18.3402545 L38.7210435,17.5042346 C39.6243142,16.2256158 39.2055251,14.4470244 37.8177728,13.7011634 L36.9145021,13.2175833 C35.9291159,12.6930217 35.3871534,11.594721 35.5760191,10.488224 L35.7484617,9.48008234 C36.0112314,7.93918283 34.8534026,6.51303115 33.2849962,6.44746096 L32.2585522,6.40647959 C31.1417811,6.35730195 30.172818,5.60324474 29.860779,4.52953285 L29.5733747,3.54597997 C29.1381624,2.03786555 27.4794289,1.25921953 26.0341958,1.88213635 L25.0898673,2.28375377 C24.0634233,2.72635257 22.8645368,2.4640718 22.1172855,1.62805186 L21.4357267,0.865798375 C20.3928596,-0.298072532 18.5616836,-0.289876258 17.527028,0.89858347 L16.8536808,1.66903323 C16.1146411,2.51324945 14.9239661,2.79192276 13.8893105,2.36571651 L12.9367705,1.97229536 C11.4833258,1.37396736 9.84101542,2.18539849 9.42222627,3.6935129 L9.15124506,4.68526205 C8.85562919,5.76717022 7.90308917,6.53761997 6.78631811,6.59499389 L5.75987412,6.65236781 C4.1914677,6.74252682 3.05827353,8.18507105 3.34567785,9.72597056 L3.53454355,10.7341123 C3.73983234,11.832413 3.21429302,12.93891 2.23711834,13.479864 L1.34205918,13.9798368 C-0.029269987,14.7420902 -0.423424479,16.528878 0.504480888,17.7911042 L1.11213573,18.6189278 C1.76905988,19.520518 1.78548299,20.7417628 1.13677039,21.6597455 L0.545538647,22.4957654 C-0.357732064,23.7743842 0.0610570841,25.5529756 1.44880936,26.2988366 L2.35208007,26.7824167 C3.3374663,27.3069783 3.87942873,28.405279 3.69056303,29.511776 L3.51812044,30.5199177 C3.25535078,32.0608172 4.4131796,33.4869688 5.98158602,33.552539 L7.00803001,33.5935204 C8.12480107,33.6426981 9.0937642,34.3967553 9.40580317,35.4704672 L9.69320749,36.45402 C10.1284197,37.9621344 11.7871532,38.7407805 13.2323864,38.1178637 L14.1767148,37.7162462 C15.2031588,37.2736474 16.4020454,37.5359282 17.1492966,38.3719481 L17.8308554,39.1342016 C18.8819341,40.2980725 20.7131102,40.2898763 21.7395542,39.1014165 L22.4129014,38.3309668 C23.1519411,37.4867506 24.3426161,37.2080772 25.3772717,37.6342835 L26.3298117,38.0277046 C27.7832564,38.6260326 29.4255668,37.8146015 29.8443559,36.3064871 L30.1153371,35.3147379 C30.410953,34.2328298 31.363493,33.46238 32.4802641,33.4050061 L33.5067081,33.3476322 C35.0751145,33.2574732 36.2083086,31.814929 35.9209043,30.2740294 L35.7320386,29.2658877 C35.5267498,28.167587 36.0522892,27.06109 37.0294638,26.520136 L37.924523,26.0201632 C39.2958522,25.266106 39.6900067,23.4793183 38.7621013,22.2088958 Z" id="Shape"></path>
                                </g>
                                <g id="baseline-assignment_turned_in-24px" transform="translate(12.792142, 13.000000)" fill="#FFFFFF">
                                    <path d="M12,1.5 L8.865,1.5 C8.55,0.63 7.725,0 6.75,0 C5.775,0 4.95,0.63 4.635,1.5 L1.5,1.5 C0.675,1.5 0,2.175 0,3 L0,13.5 C0,14.325 0.675,15 1.5,15 L12,15 C12.825,15 13.5,14.325 13.5,13.5 L13.5,3 C13.5,2.175 12.825,1.5 12,1.5 Z M6.75,1.5 C7.1625,1.5 7.5,1.8375 7.5,2.25 C7.5,2.6625 7.1625,3 6.75,3 C6.3375,3 6,2.6625 6,2.25 C6,1.8375 6.3375,1.5 6.75,1.5 Z M5.25,12 L2.25,9 L3.3075,7.9425 L5.25,9.8775 L10.1925,4.935 L11.25,6 L5.25,12 Z" id="Shape"></path>
                                </g>
                            </g>
                        </g>
                    </g>
                </g>
            </g>
        </g>
    </g>
</svg>